<svg xmlns="http://www.w3.org/2000/svg" width="27.125" height="27.125" viewBox="0 0 27.125 27.125">
  <path id="ha-modal-plus" d="M17.467,7.877H11.645a.343.343,0,0,1-.342-.342V1.712a1.712,1.712,0,1,0-3.425,0V7.535a.343.343,0,0,1-.342.342H1.712A1.713,1.713,0,0,0,0,9.59C0,10.536,1.712,11.3,1.712,11.3H7.535a.343.343,0,0,1,.342.342v5.822a1.712,1.712,0,0,0,3.425,0V11.645a.343.343,0,0,1,.342-.342h5.822a1.712,1.712,0,0,0,0-3.425Zm0,0" transform="translate(0 13.562) rotate(-45)" fill="#fce2e2"/>
</svg>
