<svg xmlns="http://www.w3.org/2000/svg" width="15.321" height="11.67" viewBox="0 0 15.321 11.67">
  <g id="mail_1_" data-name="mail (1)" transform="translate(0 -61)">
    <g id="Сгруппировать_71" data-name="Сгруппировать 71" transform="translate(0.77 61)">
      <g id="Сгруппировать_70" data-name="Сгруппировать 70">
        <path id="Контур_55" data-name="Контур 55" d="M38.926,61H26.3a1.331,1.331,0,0,0-.577.135L32.582,68l1.538-1.478h0L39.5,61.135A1.331,1.331,0,0,0,38.926,61Z" transform="translate(-25.721 -61)" fill="#ee09a9"/>
      </g>
    </g>
    <g id="Сгруппировать_73" data-name="Сгруппировать 73" transform="translate(10.121 61.77)">
      <g id="Сгруппировать_72" data-name="Сгруппировать 72" transform="translate(0 0)">
        <path id="Контур_56" data-name="Контур 56" d="M343.279,86.728l-5.066,5.065,5.065,5.066a1.331,1.331,0,0,0,.135-.577V87.3A1.331,1.331,0,0,0,343.279,86.728Z" transform="translate(-338.213 -86.728)" fill="#ee09a9"/>
      </g>
    </g>
    <g id="Сгруппировать_75" data-name="Сгруппировать 75" transform="translate(0 61.77)">
      <g id="Сгруппировать_74" data-name="Сгруппировать 74" transform="translate(0 0)">
        <path id="Контур_57" data-name="Контур 57" d="M.135,86.721A1.331,1.331,0,0,0,0,87.3v8.977a1.331,1.331,0,0,0,.135.577L5.2,91.787Z" transform="translate(0 -86.721)" fill="#ee09a9"/>
      </g>
    </g>
    <g id="Сгруппировать_77" data-name="Сгруппировать 77" transform="translate(0.769 67.47)">
      <g id="Сгруппировать_76" data-name="Сгруппировать 76" transform="translate(0 0)">
        <path id="Контур_58" data-name="Контур 58" d="M34.431,277.211l-1.538,1.478a.449.449,0,0,1-.635,0l-1.478-1.478-5.066,5.065a1.331,1.331,0,0,0,.577.135H38.919a1.331,1.331,0,0,0,.577-.135Z" transform="translate(-25.714 -277.211)" fill="#ee09a9"/>
      </g>
    </g>
  </g>
</svg>
