<svg xmlns="http://www.w3.org/2000/svg" width="39.226" height="62.752" viewBox="0 0 39.226 62.752">
  <g id="sf4" transform="translate(-95.975)">
    <g id="Сгруппировать_82" data-name="Сгруппировать 82" transform="translate(95.975)">
      <g id="Сгруппировать_81" data-name="Сгруппировать 81">
        <path id="Контур_59" data-name="Контур 59" d="M115.587,0,95.975,15.472V50.505H135.2V15.472Zm-1.839,10.272h3.678V13.95h-3.678V10.272Zm8.184,28.013a4.686,4.686,0,0,1-1.469,1.654,6.2,6.2,0,0,1-2.1.913q-.471.113-.954.18v4.315h-3.679V40.953a14.237,14.237,0,0,1-1.762-.4,15.674,15.674,0,0,1-1.864-.679,10.383,10.383,0,0,1-1.666-.913l1.778-3.531a3.434,3.434,0,0,0,.642.469,9.566,9.566,0,0,0,1.346.691,13.661,13.661,0,0,0,1.79.617,7.5,7.5,0,0,0,2,.272q2.148,0,2.148-1.308a1.105,1.105,0,0,0-.321-.815,3.033,3.033,0,0,0-.889-.58,9.662,9.662,0,0,0-1.346-.481q-.778-.222-1.691-.494a14.6,14.6,0,0,1-2.1-.8,5.526,5.526,0,0,1-1.469-1,3.627,3.627,0,0,1-.864-1.308,4.813,4.813,0,0,1-.284-1.728,5.5,5.5,0,0,1,.519-2.444,5.28,5.28,0,0,1,1.407-1.79,6.129,6.129,0,0,1,2.062-1.1q.278-.088.564-.154V19.49h3.678v3.938l.041.007a13.6,13.6,0,0,1,1.7.444,12.235,12.235,0,0,1,1.518.617q.7.346,1.3.691l-1.778,3.358a2.476,2.476,0,0,0-.519-.37,9.756,9.756,0,0,0-1.111-.568,10.778,10.778,0,0,0-1.457-.519,5.813,5.813,0,0,0-1.58-.222q-2.173,0-2.173,1.457a1.154,1.154,0,0,0,.235.741,2.064,2.064,0,0,0,.691.531,6.339,6.339,0,0,0,1.148.432q.691.2,1.6.444a21.035,21.035,0,0,1,2.271.753,6.1,6.1,0,0,1,1.716,1.012,4.106,4.106,0,0,1,1.086,1.469,5.1,5.1,0,0,1,.383,2.074A5.2,5.2,0,0,1,121.933,38.285Z" transform="translate(-95.975)" fill="#eb9ce3"/>
      </g>
    </g>
    <g id="Сгруппировать_84" data-name="Сгруппировать 84" transform="translate(95.975 54.183)">
      <g id="Сгруппировать_83" data-name="Сгруппировать 83" transform="translate(0)">
        <rect id="Прямоугольник_108" data-name="Прямоугольник 108" width="39.225" height="8.568" fill="#eb9ce3"/>
      </g>
    </g>
  </g>
</svg>
