<svg xmlns="http://www.w3.org/2000/svg" width="33.333" height="30" viewBox="0 0 33.333 30">
  <g id="subscribe-active" transform="translate(0 -21.334)">
    <g id="Сгруппировать_92" data-name="Сгруппировать 92" transform="translate(0 21.334)">
      <path id="Контур_62" data-name="Контур 62" d="M27.5,39.667a5.805,5.805,0,0,0-4.594,2.281l-11.284-4.34c.011-.148.045-.29.045-.441a5.749,5.749,0,0,0-.083-.819l11.563-5.338a6.32,6.32,0,1,0-1.4-3.025L10.186,33.323a5.833,5.833,0,1,0,.241,7.4l11.284,4.34c-.011.148-.045.29-.045.441A5.833,5.833,0,1,0,27.5,39.667Z" transform="translate(0 -21.334)" fill="#e10687"/>
    </g>
  </g>
</svg>
