<svg xmlns="http://www.w3.org/2000/svg" width="22" height="22" viewBox="0 0 22 22">
  <g id="eye-pass" transform="translate(0.001)">
    <path id="Контур_82" data-name="Контур 82" d="M21.853,128.386A15.09,15.09,0,0,0,11,123.107,15.1,15.1,0,0,0,.146,128.386a.647.647,0,0,0,0,.821A15.075,15.075,0,0,0,11,134.486a15.1,15.1,0,0,0,10.853-5.279A.647.647,0,0,0,21.853,128.386Zm-6.458.41a4.4,4.4,0,1,1-4.4-4.4,4.4,4.4,0,0,1,4.4,4.4Zm-13.874,0a15.628,15.628,0,0,1,4.949-3.439,5.675,5.675,0,0,0,0,6.877A15.343,15.343,0,0,1,1.521,128.8Zm14.008,3.439a5.675,5.675,0,0,0,0-6.877,15.346,15.346,0,0,1,4.949,3.438A15.628,15.628,0,0,1,15.529,132.235Z" transform="translate(0 -117.797)" fill="#848484"/>
    <path id="Контур_83" data-name="Контур 83" d="M204,206.2a2.2,2.2,0,1,0,2.2-2.2A2.2,2.2,0,0,0,204,206.2Zm3.106,0a.906.906,0,1,1-.906-.906A.907.907,0,0,1,207.106,206.2Z" transform="translate(-195.201 -195.2)" fill="#848484"/>
    <path id="Контур_84" data-name="Контур 84" d="M240.647,2.8a.647.647,0,0,0,.647-.647V.647a.647.647,0,0,0-1.294,0v1.51A.647.647,0,0,0,240.647,2.8Z" transform="translate(-229.648)" fill="#848484"/>
    <path id="Контур_85" data-name="Контур 85" d="M337.256,24.748a.647.647,0,0,0,.883-.242L339,23a.647.647,0,1,0-1.124-.641l-.861,1.51A.647.647,0,0,0,337.256,24.748Z" transform="translate(-322.396 -21.079)" fill="#848484"/>
    <path id="Контур_86" data-name="Контур 86" d="M124.05,24.507a.647.647,0,1,0,1.124-.641l-.861-1.51a.647.647,0,0,0-1.124.641Z" transform="translate(-117.794 -21.079)" fill="#848484"/>
    <path id="Контур_87" data-name="Контур 87" d="M240.647,445a.647.647,0,0,0-.647.647v1.51a.647.647,0,1,0,1.294,0v-1.51A.647.647,0,0,0,240.647,445Z" transform="translate(-229.648 -425.804)" fill="#848484"/>
    <path id="Контур_88" data-name="Контур 88" d="M124.933,423.052a.647.647,0,0,0-.883.242l-.861,1.51a.647.647,0,1,0,1.124.641l.861-1.51A.647.647,0,0,0,124.933,423.052Z" transform="translate(-117.794 -404.721)" fill="#848484"/>
    <path id="Контур_89" data-name="Контур 89" d="M338.138,423.293a.647.647,0,1,0-1.124.641l.861,1.51A.647.647,0,1,0,339,424.8Z" transform="translate(-322.396 -404.721)" fill="#848484"/>
  </g>
</svg>
