<svg id="Сгруппировать_67" data-name="Сгруппировать 67" xmlns="http://www.w3.org/2000/svg" width="17" height="19.091" viewBox="0 0 17 19.091">
  <path id="Контур_51" data-name="Контур 51" d="M43.65,1.39a4.761,4.761,0,0,0-6.725,0L29.844,8.472a.559.559,0,0,0,.791.791l7.081-7.081a3.725,3.725,0,0,1,5.143,0,3.641,3.641,0,0,1,0,5.143l-9.888,10a2.291,2.291,0,0,1-3.165,0,2.24,2.24,0,0,1,0-3.164l9.492-9.6a.859.859,0,0,1,1.187,0,.841.841,0,0,1,0,1.187l-9.1,9.208a.624.624,0,0,0,0,.791.559.559,0,0,0,.791,0l9.1-9.208a1.96,1.96,0,0,0,0-2.769,2.006,2.006,0,0,0-2.769,0l-9.492,9.6a3.379,3.379,0,0,0,0,4.747,3.374,3.374,0,0,0,4.747,0l9.888-10A4.76,4.76,0,0,0,43.65,1.39Z" transform="translate(-28.042 0)" fill="#686868"/>
</svg>
