<svg xmlns="http://www.w3.org/2000/svg" width="13.982" height="20.333" viewBox="0 0 13.982 20.333">
  <g id="loc" transform="translate(-79.968 0)">
    <path id="Контур_69" data-name="Контур 69" d="M92.978,3.481A6.9,6.9,0,0,0,87.115,0c-.1,0-.209,0-.313,0a6.9,6.9,0,0,0-5.863,3.48,7.079,7.079,0,0,0-.092,6.994L85.889,19.7l.007.012a1.226,1.226,0,0,0,2.126,0l.007-.012,5.042-9.229a7.079,7.079,0,0,0-.092-6.994Zm-6.02,5.732a2.859,2.859,0,1,1,2.859-2.859A2.863,2.863,0,0,1,86.958,9.213Z" fill="#e10486"/>
  </g>
</svg>
