<svg xmlns="http://www.w3.org/2000/svg" width="18.333" height="18.372" viewBox="0 0 18.333 18.372">
  <g id="phone-map" transform="translate(-0.539)">
    <g id="Сгруппировать_134" data-name="Сгруппировать 134" transform="translate(0.539 0)">
      <path id="Контур_70" data-name="Контур 70" d="M18.391,13.483l-2.564-2.564a1.705,1.705,0,0,0-2.838.641,1.745,1.745,0,0,1-2.014,1.1A7.906,7.906,0,0,1,6.213,7.9a1.66,1.66,0,0,1,1.1-2.014,1.705,1.705,0,0,0,.641-2.838L5.389.481a1.829,1.829,0,0,0-2.472,0L1.177,2.22C-.562,4.052,1.36,8.9,5.664,13.208s9.156,6.318,10.988,4.487l1.74-1.74A1.829,1.829,0,0,0,18.391,13.483Z" transform="translate(-0.539 0)" fill="#e10486"/>
    </g>
  </g>
</svg>
